<svg width="516" height="83" viewBox="0 0 516 83" fill="none" xmlns="http://www.w3.org/2000/svg">
<g clip-path="url(#clip0_1_85)">
<path d="M201.552 0.648453C191.857 3.17736 185.025 9.72658 182.975 18.4156C182.584 20.0367 182.487 21.593 182.617 24.4785C182.845 29.8281 183.886 32.7137 187.074 36.6692C190.751 41.2731 195.859 44.3207 207.083 48.6328C217.266 52.5559 219.772 53.9824 220.943 56.5762C221.659 58.1 221.724 60.8883 221.138 62.3473C219.446 66.3352 211.963 68.4426 205.229 66.8215C199.275 65.4274 195.013 62.5742 190.621 57.0301L189.156 55.2145L183.691 61.6988L178.257 68.1832L180.795 70.7446C187.074 77.0992 194.167 80.9899 202.268 82.5461C205.521 83.1621 214.273 83.1621 217.234 82.5137C227.547 80.3414 234.607 74.4731 237.568 65.6543C238.219 63.6766 238.316 62.7688 238.316 58.5215C238.316 52.9125 237.763 50.5781 235.648 47.0766C232.232 41.4676 227.743 38.5496 214.273 33.2324C201.194 28.0774 199.437 26.8453 199.437 22.825C199.47 18.0914 203.699 15.2383 210.174 15.6274C214.664 15.9192 219.706 18.2211 224.945 22.4035L227.71 24.6406L231.029 20.3285C232.883 17.9942 235.16 15.0438 236.104 13.8117L237.828 11.5422L236.657 10.5695C230.41 5.34962 223.643 1.94533 216.616 0.518768C212.972 -0.226936 204.578 -0.162094 201.552 0.648453Z" fill="black"/>
<path d="M0.390329 27.9477L0.487933 55.6035L1.36637 58.8457C4.09928 68.7668 11.1268 76.8074 20.5618 80.7305C25.1818 82.6434 28.0448 83.0973 34.1288 82.9027C38.033 82.773 39.7573 82.5785 41.6443 82.0273C46.5896 80.6008 51.7301 77.7477 55.2763 74.4406C59.2456 70.7445 62.922 64.6492 64.4186 59.332C65.5573 55.1496 65.7525 50.0594 65.6549 24.6406L65.5573 0.486328L57.3586 0.389061L49.1273 0.324219V25.516C49.1273 40.657 48.9971 51.648 48.8019 52.9773C47.7283 60.2398 41.7419 65.9137 34.3565 66.6594C26.8085 67.4051 19.3906 62.1203 17.406 54.6309C16.983 52.9773 16.9179 48.9895 16.9179 26.5211V0.324219H8.6216H0.292725L0.390329 27.9477Z" fill="black"/>
<path d="M76.0334 0.55117C75.9033 0.648438 75.8057 19.1937 75.8057 41.727V82.6758H84.102H92.3984L92.4634 57.0301L92.561 31.352L110.78 56.9328L129 82.5137L136.58 82.6109L144.129 82.6758V41.5V0.324219H135.832H127.536L127.471 26.1969L127.373 52.0695L110.78 28.7582C101.671 15.9191 93.3419 4.27969 92.3333 2.88554L90.4463 0.324219H83.3537C79.4495 0.324219 76.131 0.421486 76.0334 0.55117Z" fill="black"/>
<path d="M164.3 3.01524L156.004 5.67384L155.906 44.191L155.841 82.6758H164.3H172.759V41.5C172.759 18.8371 172.727 0.324226 172.694 0.356651C172.629 0.356651 168.855 1.55626 164.3 3.01524Z" fill="black"/>
<path d="M245.962 41.5V82.6758H254.096H262.229L262.295 67.016L262.392 51.3887L278.432 51.2914L294.439 51.2266V66.9512V82.6758H302.572H310.706V41.5V0.324219H302.572H294.439L294.374 17.8969L294.276 35.502H278.334H262.392L262.295 17.8969L262.229 0.324219H254.096H245.962V41.5Z" fill="black"/>
<path d="M331.886 34.9184C324.631 53.9824 317.603 72.4953 316.204 76.0941L313.699 82.6758H322.549H331.366L341.581 54.5336C347.21 39.0684 351.895 26.2941 352.025 26.1645C352.155 26.0348 356.905 38.582 362.599 54.0473C368.292 69.5125 373.042 82.2867 373.173 82.4488C373.27 82.5785 377.272 82.6434 382.022 82.6109L390.644 82.5137L374.995 41.5L359.313 0.486328L352.188 0.389061L345.03 0.324219L331.886 34.9184Z" fill="black"/>
<path d="M393.669 41.5V82.6758H401.966H410.262V49.4434V16.2109H417.843C427.636 16.2109 430.336 16.7945 432.939 19.518C435.834 22.5008 436.453 28.5312 434.305 32.7461C433.459 34.4645 431.117 36.4422 428.937 37.2852C427.408 37.9012 426.172 38.0633 422.723 38.193L418.396 38.3227V46.493V54.6309L428.124 68.5723L437.819 82.5137L447.807 82.6109C453.273 82.6434 457.763 82.6109 457.763 82.5137C457.763 82.4488 452.915 75.5105 446.994 67.1133C441.073 58.716 436.29 51.7777 436.355 51.7129C436.42 51.648 437.852 50.9023 439.543 50.0594C442.049 48.7949 443.122 48.0168 445.4 45.7473C448.653 42.5051 450.443 39.4574 451.646 35.0156C452.687 31.125 452.687 23.8301 451.646 19.6801C449.759 12.1582 445.627 6.87344 439.023 3.59882C433.264 0.71328 429.588 0.324219 408.896 0.324219H393.669V41.5Z" fill="black"/>
<path d="M461.667 8.26758V16.2109H488.345H515.024V8.26758V0.324219H488.345H461.667V8.26758Z" fill="black"/>
<path d="M461.667 41.6621V49.6055H488.345H515.024V41.6621V33.7188H488.345H461.667V41.6621Z" fill="black"/>
<path d="M339.857 63.4496C340.182 63.9684 343.046 68.4102 346.266 73.3707C349.455 78.2988 352.188 82.3516 352.285 82.3516C352.481 82.3191 361.948 67.7617 364.323 63.8063L365.071 62.5742H352.155H339.271L339.857 63.4496Z" fill="#BB232A"/>
<path d="M461.667 75.0566V82.6758H488.345H515.024V75.0566V67.4375H488.345H461.667V75.0566Z" fill="black"/>
</g>
<defs>
<clipPath id="clip0_1_85">
<rect width="516" height="83" fill="white"/>
</clipPath>
</defs>
</svg>
